[en] An example of recursive partitioning with Titanic data • moreparty
…
The probability of survival for young children is high, but drops rapidly with age. It is around the average for young adults and declines again after age 30.

We often limit ourselves to examining average survival probabilities, but we can also look at their distribution, in numerical form :

pdep_ind <- GetPartialData(foret, which.class=2, probs=1:19/20, prob=TRUE, ice=TRUE)

pdep_ind %>% group_by(var, cat) %>% summarise(prob = mean(value) %>% round(3),
                                              Q1 = quantile(value, 0.25) %>% round(3),
                                              Q3 = quantile(value, 0.75) %>% round(3))

# A tibble: 27 x 5
# Groups:   var [4]
   var   cat    prob    Q1    Q3
   <fct> <chr> <dbl> <dbl> <dbl>
 1 Age   14    0.409 0.137 0.596
 2 Age   18    0.384 0.12  0.568
 3 Age   19    0.385 0.124 0.567
 4 Age   21    0.385 0.131 0.562
 5 Age   22    0.385 0.124 0.576
 6 Age   24    0.386 0.139 0.572
 7 Age   25    0.391 0.167 0.556
 8 Age   26    0.39  0.16  0.556
 9 Age   28    0.369 0.136 0.512
10 Age   30    0.374 0.155 0.509
# … with 17 more rows
…
